<?xml version="1.0" encoding="iso-8859-1"?>
<!-- Generator: Adobe Illustrator 18.0.0, SVG Export Plug-In . SVG Version: 6.00 Build 0)  -->
<!DOCTYPE svg PUBLIC "-//W3C//DTD SVG 1.1//EN" "http://www.w3.org/Graphics/SVG/1.1/DTD/svg11.dtd">
<svg xmlns="http://www.w3.org/2000/svg" xmlns:xlink="http://www.w3.org/1999/xlink" version="1.1" id="Capa_1" x="0px" y="0px" viewBox="0 0 490 490" style="enable-background:new 0 0 490 490;" xml:space="preserve" width="512px" height="512px">
<g>
	<g>
		<path d="M330.889,245.245c0,7.106-5.755,12.866-12.859,12.866c-7.103,0-12.862-5.76-12.862-12.866    c0-7.102,5.76-12.864,12.862-12.864C325.134,232.381,330.889,238.143,330.889,245.245z" fill="#FFFFFF"/>
		<path d="M184.838,245.245c0,7.106-5.758,12.866-12.863,12.866c-7.105,0-12.863-5.76-12.863-12.866    c0-7.102,5.758-12.864,12.863-12.864C179.08,232.381,184.838,238.143,184.838,245.245z" fill="#FFFFFF"/>
	</g>
	<path d="M461.56,192.058c-5.722-48.399-27.35-93.188-62.338-128.179C358.029,22.687,303.262,0,245.004,0   C186.745,0,131.976,22.685,90.781,63.879c-34.99,34.989-56.618,79.776-62.341,128.175c-8.815,4.786-14.798,14.125-14.798,24.859   v44.221c0,15.606,12.65,28.265,28.263,28.265c15.607,0,28.267-12.658,28.267-28.265v-44.221c0-9.387-4.582-17.702-11.626-22.844   C70.38,101.721,149.487,30.114,245.004,30.114c95.513,0,174.614,71.604,186.451,163.951c-7.047,5.141-11.63,13.458-11.63,22.848   v44.221c0,15.606,12.653,28.265,28.263,28.265c15.608,0,28.27-12.658,28.27-28.265v-44.221   C476.357,206.182,470.374,196.846,461.56,192.058z" fill="#FFFFFF"/>
	<path d="M343.034,338.868c37.589-29.275,61.813-74.941,61.813-126.164c0-88.137-71.708-159.843-159.854-159.843   c-88.134,0-159.841,71.706-159.841,159.843c0,51.223,24.224,96.891,61.812,126.165C74.817,351.377,19.945,414.275,19.945,490   h450.109C470.055,414.273,415.181,351.373,343.034,338.868z M116.836,219.109c79.519-5.04,113.653-47.886,128.165-87.114   c14.518,39.229,48.65,82.074,128.166,87.114c-1.25,25.29-9.859,48.676-23.721,68.061c-10.611,4.426-22.055,6.74-33.689,6.74   h-44.063c-3.16-4.486-8.369-7.426-14.27-7.426h-24.552c-9.647,0-17.468,7.819-17.468,17.465c0,9.643,7.82,17.463,17.468,17.463   h24.552c5.901,0,11.11-2.939,14.27-7.426h44.063c2.803,0,5.597-0.121,8.377-0.338c-21.819,17.141-49.305,27.377-79.142,27.377   C176.388,341.026,120.187,286.903,116.836,219.109z M245.004,420.256c-34.537,0-63.25-27.246-64.748-61.417   c19.802,8.807,41.706,13.713,64.737,13.713c22.614,0,44.142-4.73,63.657-13.236C306.915,393.264,279.386,420.256,245.004,420.256z" fill="#FFFFFF"/>
</g>
<g>
</g>
<g>
</g>
<g>
</g>
<g>
</g>
<g>
</g>
<g>
</g>
<g>
</g>
<g>
</g>
<g>
</g>
<g>
</g>
<g>
</g>
<g>
</g>
<g>
</g>
<g>
</g>
<g>
</g>
</svg>
